Problem size: 500000000
500000000 elements, 1 threads, starting...Finished in 5.729 seconds. Ordering: OK
500000000 elements, 2 threads, starting...Finished in 7.394 seconds. Ordering: OK
500000000 elements, 4 threads, starting...Finished in 4.217 seconds. Ordering: OK
500000000 elements, 8 threads, starting...Finished in 1.349 seconds. Ordering: OK

Problem size: 1000000000
1000000000 elements, 1 threads, starting...Finished in 11.577 seconds. Ordering: OK
1000000000 elements, 2 threads, starting...Finished in 12.985 seconds. Ordering: OK
1000000000 elements, 4 threads, starting...Finished in 9.162 seconds. Ordering: OK
1000000000 elements, 8 threads, starting...Finished in 2.551 seconds. Ordering: OK

Problem size: 1200000000
1200000000 elements, 1 threads, starting...Finished in 13.779 seconds. Ordering: OK
1200000000 elements, 2 threads, starting...Finished in 15.577 seconds. Ordering: OK
1200000000 elements, 4 threads, starting...Finished in 9.977 seconds. Ordering: OK
1200000000 elements, 8 threads, starting...Finished in 3.165 seconds. Ordering: OK

Problem size: 1500000000
1500000000 elements, 1 threads, starting...Finished in 17.267 seconds. Ordering: OK
1500000000 elements, 2 threads, starting...Finished in 22.046 seconds. Ordering: OK
1500000000 elements, 4 threads, starting...Finished in 12.442 seconds. Ordering: OK
1500000000 elements, 8 threads, starting...Finished in 3.803 seconds. Ordering: OK

